[
    {
      "id": "abc-news-au",
      "url": "http://mobile.abc.net.au/cm/cb/4355924/News+iOS+120x120/data.png"
    },
    {
      "id": "al-jazeera-english",
      "url": "http://www.aljazeera.com/mritems/assets/images/touch-icon-iphone-retina.png"
    },
    {
      "id": "ars-technica",
      "url": "http://cdn.arstechnica.net/apple-touch-icon.png"
    },
    {
      "id": "associated-press",
      "url": "https://icons.better-idea.org/lettericons/A-120.png"
    },
    {
      "id": "bbc-news",
      "url": "http://m.files.bbci.co.uk/modules/bbc-morph-news-waf-page-meta/1.2.0/apple-touch-icon.png"
    },
    {
      "id": "bbc-sport",
      "url": "http://static.bbci.co.uk/onesport/2.11.248/images/web-icons/bbc-sport-180.png"
    },
    {
      "id": "bloomberg",
      "url": "https://assets.bwbx.io/business/public/images/favicons/apple-touch-icon-120x120-ef3226f2bd.png"
    },
    {
      "id": "breitbart-news",
      "url": "http://www.breitbart.com/apple-touch-icon-152x152.png"
    },
    {
      "id": "business-insider",
      "url": "http://www.businessinsider.com/apple-touch-icon-precomposed.png?r=UK&IR=T"
    },
    {
      "id": "business-insider-uk",
      "url": "http://www.businessinsider.com/apple-touch-icon-precomposed.png?r=UK&IR=T"
    },
    {
      "id": "buzzfeed",
      "url": "https://www.buzzfeed.com/static-assets/img/touch-icon-ios_120.208a0e329cd6e8d831b21ae17fb6aabb.png"
    },
    {
      "id": "cnbc",
      "url": "https://icons.better-idea.org/lettericons/C-120-fab715.png"
    },
    {
      "id": "cnn",
      "url": "http://cdn.cnn.com/cnn/.e/img/3.0/global/misc/apple-touch-icon.png"
    },
    {
      "id": "daily-mail",
      "url": "http://www.dailymail.co.uk/apple-touch-icon.png"
    },
    {
      "id": "engadget",
      "url": "https://s.blogsmithmedia.com/www.engadget.com/assets-h1b84bef41601eaefbcc755c797e35914/images/apple-touch-icon-120x120.png?h=232a14b1a350de05a49b584a62abac9e"
    },
    {
      "id": "entertainment-weekly",
      "url": "http://1.gravatar.com/blavatar/782bdf163168ca78e52d32d27b830793?s=114"
    },
    {
      "id": "espn",
      "url": "http://a.espncdn.com/wireless/mw5/r1/images/bookmark-icons/espn_icon-152x152.min.png"
    },
    {
      "id": "espn-cric-info",
      "url": "http://a.espncdn.com/wireless/mw5/r1/images/bookmark-icons/espncricinfo_icon-152x152.min.png"
    },
    {
      "id": "financial-times",
      "url": "https://www.ft.com/__assets/creatives/brand-ft/icons/v2/apple-touch-icon-180x180.png"
    },
    {
      "id": "football-italia",
      "url": "https://icons.better-idea.org/lettericons/F-120-9f0101.png"
    },
    {
      "id": "fortune",
      "url": "http://1.gravatar.com/blavatar/dab01945b542bffb69b4f700d7a35f8f?s=114"
    },
    {
      "id": "four-four-two",
      "url": "https://images.cdn.fourfourtwo.com/sites/fourfourtwo.com/themes/fourfourtwo/images/apple-icon-144x144px.png"
    },
    {
      "id": "fox-sports",
      "url": "https://icons.better-idea.org/lettericons/F-120.png"
    },
    {
      "id": "google-news",
      "url": "https://ssl.gstatic.com/news-static/img/1703439073-news-thumb-128_w.png"
    },
    {
      "id": "hacker-news",
      "url": "https://news.ycombinator.com/favicon.ico"
    },
    {
      "id": "ign",
      "url": "http://m.ign.com/apple-touch-icon-precomposed.png"
    },
    {
      "id": "independent",
      "url": "http://www.independent.co.uk/sites/all/themes/ines_themes/independent_theme/img/apple-icon-120x120.png"
    },
    {
      "id": "mashable",
      "url": "http://mashable.com/apple-touch-icon-120x120.png?v=m2Pmw8zNwl"
    },
    {
      "id": "metro",
      "url": "http://1.gravatar.com/blavatar/72ba1fb4e57339685f67d1d89b3db216?s=120"
    },
    {
      "id": "mirror",
      "url": "https://icons.better-idea.org/lettericons/M-120.png"
    },
    {
      "id": "mtv-news",
      "url": "http://www.mtv.com/apple-touch-icon-precomposed.png"
    },
    {
      "id": "mtv-news-uk",
      "url": "https://icons.better-idea.org/lettericons/M-120-000000.png"
    },
    {
      "id": "national-geographic",
      "url": "https://icons.better-idea.org/lettericons/N-120.png"
    },
    {
      "id": "new-scientist",
      "url": "https://icons.better-idea.org/lettericons/N-120-58585b.png"
    },
    {
      "id": "newsweek",
      "url": "http://s.newsweek.com/sites/www.newsweek.com/themes/newsweek/favicons/apple-touch-icon-120x120.png"
    },
    {
      "id": "new-york-magazine",
      "url": "http://cache.nymag.com/media/nymag/icon.120x120.png"
    },
    {
      "id": "nfl-news",
      "url": "https://www.nfl.com/apple-touch-icon.png"
    },
    {
      "id": "polygon",
      "url": "https://cdn.vox-cdn.com/uploads/hub/sbnu_logo_minimal/405/touch_icon_ipad_retina_1000x1000.7014.png"
    },
    {
      "id": "recode",
      "url": "https://cdn.vox-cdn.com/uploads/chorus_asset/file/6397047/recode_favicon-180.0.png"
    },
    {
      "id": "reddit-r-all",
      "url": "https://www.redditstatic.com/mweb2x/favicon/120x120.png"
    },
    {
      "id": "reuters",
      "url": "http://s1.reutersmedia.net/resources_v3/images/favicon/apple-touch-icon-120x120.png"
    },
    {
      "id": "talksport",
      "url": "https://icons.better-idea.org/lettericons/T-120-fff100.png"
    },
    {
      "id": "techcrunch",
      "url": "https://s0.wp.com/wp-content/themes/vip/techcrunch-2013/assets/images/homescreen_TCIcon_ipad_2x.png"
    },
    {
      "id": "techradar",
      "url": "http://cdn0.static.techradar.futurecdn.net/20171006/apple-touch-icon.png"
    },
    {
      "id": "the-economist",
      "url": "https://icons.better-idea.org/lettericons/E-120-e3120b.png"
    },
    {
      "id": "the-guardian-au",
      "url": "https://assets.guim.co.uk/images/favicons/cf23080600002e50f5869c72f5a904bd/120x120.png"
    },
    {
      "id": "the-guardian-uk",
      "url": "https://assets.guim.co.uk/images/favicons/cf23080600002e50f5869c72f5a904bd/120x120.png"
    },
    {
      "id": "the-hindu",
      "url": "https://icons.better-idea.org/lettericons/T-120-ffffff.png"
    },
    {
      "id": "the-huffington-post",
      "url": "https://icons.better-idea.org/lettericons/H-120-0dbc96.png"
    },
    {
      "id": "the-lad-bible",
      "url": "http://www.ladbible.com/assets/images/theme/favicons/apple-touch-icon-120x120.png"
    },
    {
      "id": "the-new-york-times",
      "url": "https://mobile.nytimes.com/vi-assets/apple-touch-icon-319373aaf4524d94d38aa599c56b8655.png"
    },
    {
      "id": "the-next-web",
      "url": "https://cdn0.tnwcdn.com/wp-content/themes/cyberdelia/assets/icons/apple-touch-icon-120x120.png?v=1507841462"
    },
    {
      "id": "the-sport-bible",
      "url": "http://www.sportbible.com/assets/images/theme/favicons/apple-touch-icon-120x120.png"
    },
    {
      "id": "the-telegraph",
      "url": "https://icons.better-idea.org/lettericons/T-120-1a151b.png"
    },
    {
      "id": "the-times-of-india",
      "url": "https://icons.better-idea.org/lettericons/I-120.png"
    },
    {
      "id": "the-verge",
      "url": "https://cdn.vox-cdn.com/uploads/chorus_asset/file/7395359/ios-icon.0.png"
    },
    {
      "id": "the-wall-street-journal",
      "url": "https://www.wsj.com/apple-touch-icon-precomposed.png"
    },
    {
      "id": "the-washington-post",
      "url": "https://www.washingtonpost.com/favicon.ico"
    },
    {
      "id": "time",
      "url": "http://s0.wp.com/wp-content/themes/vip/time2014/img/time-touch_icon_120.png"
    },
    {
      "id": "usa-today",
      "url": "https://icons.better-idea.org/lettericons/U-120-009bff.png"
    }
]